{
  "error": 0,
  "processingTimeMs": 400,
  "result": [
    {
      "index": {
        "dowId": 1,
        "hourId": 0
      },
      "data": {
        "Site Incident Heat Severity Map (lv12)": [
          {
            "rank": 1,
            "value": 10.0,
            "timestamp": 1453738609000
          }
        ]
      }
    },
    {
      "index": {
        "dowId": 1,
        "hourId": 10
      },
      "data": {
        "Site Incident Heat Severity Map (lv12)": [
          {
            "rank": 1,
            "value": 110.0,
            "timestamp": 1453738609000
          }
        ]
      }
    },
    {
      "index": {
        "dowId": 1,
        "hourId": 11
      },
      "data": {
        "Site Incident Heat Severity Map (lv12)": [
          {
            "rank": 1,
            "value": 410.0,
            "timestamp": 1453738609000
          }
        ]
      }
    },
    {
      "index": {
        "dowId": 1,
        "hourId": 12
      },
      "data": {
        "Site Incident Heat Severity Map (lv12)": [
          {
            "rank": 1,
            "value": 20.0,
            "timestamp": 1453738609000
          }
        ]
      }
    },
    {
      "index": {
        "dowId": 1,
        "hourId": 13
      },
      "data": {
        "Site Incident Heat Severity Map (lv12)": [
          {
            "rank": 1,
            "value": 10.0,
            "timestamp": 1453738609000
          }
        ]
      }
    },
    {
      "index": {
        "dowId": 1,
        "hourId": 14
      },
      "data": {
        "Site Incident Heat Severity Map (lv12)": [
          {
            "rank": 1,
            "value": 100.0,
            "timestamp": 1453738609000
          }
        ]
      }
    },
    {
      "index": {
        "dowId": 1,
        "hourId": 15
      },
      "data": {
        "Site Incident Heat Severity Map (lv12)": [
          {
            "rank": 1,
            "value": 20.0,
            "timestamp": 1453738609000
          }
        ]
      }
    },
    {
      "index": {
        "dowId": 1,
        "hourId": 16
      },
      "data": {
        "Site Incident Heat Severity Map (lv12)": [
          {
            "rank": 1,
            "value": 50.0,
            "timestamp": 1453738609000
          }
        ]
      }
    },
    {
      "index": {
        "dowId": 1,
        "hourId": 17
      },
      "data": {
        "Site Incident Heat Severity Map (lv12)": [
          {
            "rank": 1,
            "value": 80.0,
            "timestamp": 1453738609000
          }
        ]
      }
    },
    {
      "index": {
        "dowId": 1,
        "hourId": 18
      },
      "data": {
        "Site Incident Heat Severity Map (lv12)": [
          {
            "rank": 1,
            "value": 100.0,
            "timestamp": 1453738609000
          }
        ]
      }
    },
    {
      "index": {
        "dowId": 1,
        "hourId": 19
      },
      "data": {
        "Site Incident Heat Severity Map (lv12)": [
          {
            "rank": 1,
            "value": 100.0,
            "timestamp": 1453738609000
          }
        ]
      }
    },
    {
      "index": {
        "dowId": 1,
        "hourId": 2
      },
      "data": {
        "Site Incident Heat Severity Map (lv12)": [
          {
            "rank": 1,
            "value": 80.0,
            "timestamp": 1453738609000
          }
        ]
      }
    },
    {
      "index": {
        "dowId": 1,
        "hourId": 20
      },
      "data": {
        "Site Incident Heat Severity Map (lv12)": [
          {
            "rank": 1,
            "value": 20.0,
            "timestamp": 1453738609000
          }
        ]
      }
    },
    {
      "index": {
        "dowId": 1,
        "hourId": 23
      },
      "data": {
        "Site Incident Heat Severity Map (lv12)": [
          {
            "rank": 1,
            "value": 20.0,
            "timestamp": 1453738609000
          }
        ]
      }
    },
    {
      "index": {
        "dowId": 1,
        "hourId": 3
      },
      "data": {
        "Site Incident Heat Severity Map (lv12)": [
          {
            "rank": 1,
            "value": 20.0,
            "timestamp": 1453738609000
          }
        ]
      }
    },
    {
      "index": {
        "dowId": 1,
        "hourId": 4
      },
      "data": {
        "Site Incident Heat Severity Map (lv12)": [
          {
            "rank": 1,
            "value": 20.0,
            "timestamp": 1453738609000
          }
        ]
      }
    },
    {
      "index": {
        "dowId": 1,
        "hourId": 7
      },
      "data": {
        "Site Incident Heat Severity Map (lv12)": [
          {
            "rank": 1,
            "value": 90.0,
            "timestamp": 1453738609000
          }
        ]
      }
    },
    {
      "index": {
        "dowId": 1,
        "hourId": 9
      },
      "data": {
        "Site Incident Heat Severity Map (lv12)": [
          {
            "rank": 1,
            "value": 20.0,
            "timestamp": 1453738609000
          }
        ]
      }
    },
    {
      "index": {
        "dowId": 2,
        "hourId": 10
      },
      "data": {
        "Site Incident Heat Severity Map (lv12)": [
          {
            "rank": 1,
            "value": 620.0,
            "timestamp": 1453738609000
          }
        ]
      }
    },
    {
      "index": {
        "dowId": 2,
        "hourId": 11
      },
      "data": {
        "Site Incident Heat Severity Map (lv12)": [
          {
            "rank": 1,
            "value": 200.0,
            "timestamp": 1453738609000
          }
        ]
      }
    },
    {
      "index": {
        "dowId": 2,
        "hourId": 12
      },
      "data": {
        "Site Incident Heat Severity Map (lv12)": [
          {
            "rank": 1,
            "value": 140.0,
            "timestamp": 1453738609000
          }
        ]
      }
    },
    {
      "index": {
        "dowId": 2,
        "hourId": 13
      },
      "data": {
        "Site Incident Heat Severity Map (lv12)": [
          {
            "rank": 1,
            "value": 40.0,
            "timestamp": 1453738609000
          }
        ]
      }
    },
    {
      "index": {
        "dowId": 2,
        "hourId": 14
      },
      "data": {
        "Site Incident Heat Severity Map (lv12)": [
          {
            "rank": 1,
            "value": 370.0,
            "timestamp": 1453738609000
          }
        ]
      }
    },
    {
      "index": {
        "dowId": 2,
        "hourId": 15
      },
      "data": {
        "Site Incident Heat Severity Map (lv12)": [
          {
            "rank": 1,
            "value": 40.0,
            "timestamp": 1453738609000
          }
        ]
      }
    },
    {
      "index": {
        "dowId": 2,
        "hourId": 16
      },
      "data": {
        "Site Incident Heat Severity Map (lv12)": [
          {
            "rank": 1,
            "value": 110.0,
            "timestamp": 1453738609000
          }
        ]
      }
    },
    {
      "index": {
        "dowId": 2,
        "hourId": 17
      },
      "data": {
        "Site Incident Heat Severity Map (lv12)": [
          {
            "rank": 1,
            "value": 120.0,
            "timestamp": 1453738609000
          }
        ]
      }
    },
    {
      "index": {
        "dowId": 2,
        "hourId": 18
      },
      "data": {
        "Site Incident Heat Severity Map (lv12)": [
          {
            "rank": 1,
            "value": 350.0,
            "timestamp": 1453738609000
          }
        ]
      }
    },
    {
      "index": {
        "dowId": 2,
        "hourId": 19
      },
      "data": {
        "Site Incident Heat Severity Map (lv12)": [
          {
            "rank": 1,
            "value": 190.0,
            "timestamp": 1453738609000
          }
        ]
      }
    },
    {
      "index": {
        "dowId": 2,
        "hourId": 20
      },
      "data": {
        "Site Incident Heat Severity Map (lv12)": [
          {
            "rank": 1,
            "value": 40.0,
            "timestamp": 1453738609000
          }
        ]
      }
    },
    {
      "index": {
        "dowId": 2,
        "hourId": 21
      },
      "data": {
        "Site Incident Heat Severity Map (lv12)": [
          {
            "rank": 1,
            "value": 150.0,
            "timestamp": 1453738609000
          }
        ]
      }
    },
    {
      "index": {
        "dowId": 2,
        "hourId": 22
      },
      "data": {
        "Site Incident Heat Severity Map (lv12)": [
          {
            "rank": 1,
            "value": 70.0,
            "timestamp": 1453738609000
          }
        ]
      }
    },
    {
      "index": {
        "dowId": 2,
        "hourId": 7
      },
      "data": {
        "Site Incident Heat Severity Map (lv12)": [
          {
            "rank": 1,
            "value": 90.0,
            "timestamp": 1453738609000
          }
        ]
      }
    },
    {
      "index": {
        "dowId": 2,
        "hourId": 8
      },
      "data": {
        "Site Incident Heat Severity Map (lv12)": [
          {
            "rank": 1,
            "value": 180.0,
            "timestamp": 1453738609000
          }
        ]
      }
    },
    {
      "index": {
        "dowId": 2,
        "hourId": 9
      },
      "data": {
        "Site Incident Heat Severity Map (lv12)": [
          {
            "rank": 1,
            "value": 240.0,
            "timestamp": 1453738609000
          }
        ]
      }
    },
    {
      "index": {
        "dowId": 3,
        "hourId": 10
      },
      "data": {
        "Site Incident Heat Severity Map (lv12)": [
          {
            "rank": 1,
            "value": 400.0,
            "timestamp": 1453738609000
          }
        ]
      }
    },
    {
      "index": {
        "dowId": 3,
        "hourId": 11
      },
      "data": {
        "Site Incident Heat Severity Map (lv12)": [
          {
            "rank": 1,
            "value": 560.0,
            "timestamp": 1453738609000
          }
        ]
      }
    },
    {
      "index": {
        "dowId": 3,
        "hourId": 12
      },
      "data": {
        "Site Incident Heat Severity Map (lv12)": [
          {
            "rank": 1,
            "value": 370.0,
            "timestamp": 1453738609000
          }
        ]
      }
    },
    {
      "index": {
        "dowId": 3,
        "hourId": 13
      },
      "data": {
        "Site Incident Heat Severity Map (lv12)": [
          {
            "rank": 1,
            "value": 520.0,
            "timestamp": 1453738609000
          }
        ]
      }
    },
    {
      "index": {
        "dowId": 3,
        "hourId": 14
      },
      "data": {
        "Site Incident Heat Severity Map (lv12)": [
          {
            "rank": 1,
            "value": 190.0,
            "timestamp": 1453738609000
          }
        ]
      }
    },
    {
      "index": {
        "dowId": 3,
        "hourId": 15
      },
      "data": {
        "Site Incident Heat Severity Map (lv12)": [
          {
            "rank": 1,
            "value": 70.0,
            "timestamp": 1453738609000
          }
        ]
      }
    },
    {
      "index": {
        "dowId": 3,
        "hourId": 16
      },
      "data": {
        "Site Incident Heat Severity Map (lv12)": [
          {
            "rank": 1,
            "value": 180.0,
            "timestamp": 1453738609000
          }
        ]
      }
    },
    {
      "index": {
        "dowId": 3,
        "hourId": 17
      },
      "data": {
        "Site Incident Heat Severity Map (lv12)": [
          {
            "rank": 1,
            "value": 260.0,
            "timestamp": 1453738609000
          }
        ]
      }
    },
    {
      "index": {
        "dowId": 3,
        "hourId": 18
      },
      "data": {
        "Site Incident Heat Severity Map (lv12)": [
          {
            "rank": 1,
            "value": 310.0,
            "timestamp": 1453738609000
          }
        ]
      }
    },
    {
      "index": {
        "dowId": 3,
        "hourId": 19
      },
      "data": {
        "Site Incident Heat Severity Map (lv12)": [
          {
            "rank": 1,
            "value": 140.0,
            "timestamp": 1453738609000
          }
        ]
      }
    },
    {
      "index": {
        "dowId": 3,
        "hourId": 2
      },
      "data": {
        "Site Incident Heat Severity Map (lv12)": [
          {
            "rank": 1,
            "value": 50.0,
            "timestamp": 1453738609000
          }
        ]
      }
    },
    {
      "index": {
        "dowId": 3,
        "hourId": 20
      },
      "data": {
        "Site Incident Heat Severity Map (lv12)": [
          {
            "rank": 1,
            "value": 110.0,
            "timestamp": 1453738609000
          }
        ]
      }
    },
    {
      "index": {
        "dowId": 3,
        "hourId": 21
      },
      "data": {
        "Site Incident Heat Severity Map (lv12)": [
          {
            "rank": 1,
            "value": 240.0,
            "timestamp": 1453738609000
          }
        ]
      }
    },
    {
      "index": {
        "dowId": 3,
        "hourId": 22
      },
      "data": {
        "Site Incident Heat Severity Map (lv12)": [
          {
            "rank": 1,
            "value": 70.0,
            "timestamp": 1453738609000
          }
        ]
      }
    },
    {
      "index": {
        "dowId": 3,
        "hourId": 23
      },
      "data": {
        "Site Incident Heat Severity Map (lv12)": [
          {
            "rank": 1,
            "value": 40.0,
            "timestamp": 1453738609000
          }
        ]
      }
    },
    {
      "index": {
        "dowId": 3,
        "hourId": 4
      },
      "data": {
        "Site Incident Heat Severity Map (lv12)": [
          {
            "rank": 1,
            "value": 110.0,
            "timestamp": 1453738609000
          }
        ]
      }
    },
    {
      "index": {
        "dowId": 3,
        "hourId": 7
      },
      "data": {
        "Site Incident Heat Severity Map (lv12)": [
          {
            "rank": 1,
            "value": 120.0,
            "timestamp": 1453738609000
          }
        ]
      }
    },
    {
      "index": {
        "dowId": 3,
        "hourId": 8
      },
      "data": {
        "Site Incident Heat Severity Map (lv12)": [
          {
            "rank": 1,
            "value": 180.0,
            "timestamp": 1453738609000
          }
        ]
      }
    },
    {
      "index": {
        "dowId": 3,
        "hourId": 9
      },
      "data": {
        "Site Incident Heat Severity Map (lv12)": [
          {
            "rank": 1,
            "value": 260.0,
            "timestamp": 1453738609000
          }
        ]
      }
    },
    {
      "index": {
        "dowId": 4,
        "hourId": 10
      },
      "data": {
        "Site Incident Heat Severity Map (lv12)": [
          {
            "rank": 1,
            "value": 610.0,
            "timestamp": 1453738609000
          }
        ]
      }
    },
    {
      "index": {
        "dowId": 4,
        "hourId": 11
      },
      "data": {
        "Site Incident Heat Severity Map (lv12)": [
          {
            "rank": 1,
            "value": 510.0,
            "timestamp": 1453738609000
          }
        ]
      }
    },
    {
      "index": {
        "dowId": 4,
        "hourId": 12
      },
      "data": {
        "Site Incident Heat Severity Map (lv12)": [
          {
            "rank": 1,
            "value": 300.0,
            "timestamp": 1453738609000
          }
        ]
      }
    },
    {
      "index": {
        "dowId": 4,
        "hourId": 13
      },
      "data": {
        "Site Incident Heat Severity Map (lv12)": [
          {
            "rank": 1,
            "value": 590.0,
            "timestamp": 1453738609000
          }
        ]
      }
    },
    {
      "index": {
        "dowId": 4,
        "hourId": 14
      },
      "data": {
        "Site Incident Heat Severity Map (lv12)": [
          {
            "rank": 1,
            "value": 310.0,
            "timestamp": 1453738609000
          }
        ]
      }
    },
    {
      "index": {
        "dowId": 4,
        "hourId": 15
      },
      "data": {
        "Site Incident Heat Severity Map (lv12)": [
          {
            "rank": 1,
            "value": 240.0,
            "timestamp": 1453738609000
          }
        ]
      }
    },
    {
      "index": {
        "dowId": 4,
        "hourId": 16
      },
      "data": {
        "Site Incident Heat Severity Map (lv12)": [
          {
            "rank": 1,
            "value": 100.0,
            "timestamp": 1453738609000
          }
        ]
      }
    },
    {
      "index": {
        "dowId": 4,
        "hourId": 17
      },
      "data": {
        "Site Incident Heat Severity Map (lv12)": [
          {
            "rank": 1,
            "value": 160.0,
            "timestamp": 1453738609000
          }
        ]
      }
    },
    {
      "index": {
        "dowId": 4,
        "hourId": 18
      },
      "data": {
        "Site Incident Heat Severity Map (lv12)": [
          {
            "rank": 1,
            "value": 670.0,
            "timestamp": 1453738609000
          }
        ]
      }
    },
    {
      "index": {
        "dowId": 4,
        "hourId": 19
      },
      "data": {
        "Site Incident Heat Severity Map (lv12)": [
          {
            "rank": 1,
            "value": 160.0,
            "timestamp": 1453738609000
          }
        ]
      }
    },
    {
      "index": {
        "dowId": 4,
        "hourId": 20
      },
      "data": {
        "Site Incident Heat Severity Map (lv12)": [
          {
            "rank": 1,
            "value": 120.0,
            "timestamp": 1453738609000
          }
        ]
      }
    },
    {
      "index": {
        "dowId": 4,
        "hourId": 21
      },
      "data": {
        "Site Incident Heat Severity Map (lv12)": [
          {
            "rank": 1,
            "value": 50.0,
            "timestamp": 1453738609000
          }
        ]
      }
    },
    {
      "index": {
        "dowId": 4,
        "hourId": 22
      },
      "data": {
        "Site Incident Heat Severity Map (lv12)": [
          {
            "rank": 1,
            "value": 20.0,
            "timestamp": 1453738609000
          }
        ]
      }
    },
    {
      "index": {
        "dowId": 4,
        "hourId": 23
      },
      "data": {
        "Site Incident Heat Severity Map (lv12)": [
          {
            "rank": 1,
            "value": 280.0,
            "timestamp": 1453738609000
          }
        ]
      }
    },
    {
      "index": {
        "dowId": 4,
        "hourId": 6
      },
      "data": {
        "Site Incident Heat Severity Map (lv12)": [
          {
            "rank": 1,
            "value": 50.0,
            "timestamp": 1453738609000
          }
        ]
      }
    },
    {
      "index": {
        "dowId": 4,
        "hourId": 7
      },
      "data": {
        "Site Incident Heat Severity Map (lv12)": [
          {
            "rank": 1,
            "value": 140.0,
            "timestamp": 1453738609000
          }
        ]
      }
    },
    {
      "index": {
        "dowId": 4,
        "hourId": 8
      },
      "data": {
        "Site Incident Heat Severity Map (lv12)": [
          {
            "rank": 1,
            "value": 220.0,
            "timestamp": 1453738609000
          }
        ]
      }
    },
    {
      "index": {
        "dowId": 4,
        "hourId": 9
      },
      "data": {
        "Site Incident Heat Severity Map (lv12)": [
          {
            "rank": 1,
            "value": 280.0,
            "timestamp": 1453738609000
          }
        ]
      }
    },
    {
      "index": {
        "dowId": 5,
        "hourId": 0
      },
      "data": {
        "Site Incident Heat Severity Map (lv12)": [
          {
            "rank": 1,
            "value": 120.0,
            "timestamp": 1453738609000
          }
        ]
      }
    },
    {
      "index": {
        "dowId": 5,
        "hourId": 1
      },
      "data": {
        "Site Incident Heat Severity Map (lv12)": [
          {
            "rank": 1,
            "value": 50.0,
            "timestamp": 1453738609000
          }
        ]
      }
    },
    {
      "index": {
        "dowId": 5,
        "hourId": 10
      },
      "data": {
        "Site Incident Heat Severity Map (lv12)": [
          {
            "rank": 1,
            "value": 670.0,
            "timestamp": 1453738609000
          }
        ]
      }
    },
    {
      "index": {
        "dowId": 5,
        "hourId": 11
      },
      "data": {
        "Site Incident Heat Severity Map (lv12)": [
          {
            "rank": 1,
            "value": 650.0,
            "timestamp": 1453738609000
          }
        ]
      }
    },
    {
      "index": {
        "dowId": 5,
        "hourId": 12
      },
      "data": {
        "Site Incident Heat Severity Map (lv12)": [
          {
            "rank": 1,
            "value": 620.0,
            "timestamp": 1453738609000
          }
        ]
      }
    },
    {
      "index": {
        "dowId": 5,
        "hourId": 13
      },
      "data": {
        "Site Incident Heat Severity Map (lv12)": [
          {
            "rank": 1,
            "value": 270.0,
            "timestamp": 1453738609000
          }
        ]
      }
    },
    {
      "index": {
        "dowId": 5,
        "hourId": 14
      },
      "data": {
        "Site Incident Heat Severity Map (lv12)": [
          {
            "rank": 1,
            "value": 360.0,
            "timestamp": 1453738609000
          }
        ]
      }
    },
    {
      "index": {
        "dowId": 5,
        "hourId": 15
      },
      "data": {
        "Site Incident Heat Severity Map (lv12)": [
          {
            "rank": 1,
            "value": 400.0,
            "timestamp": 1453738609000
          }
        ]
      }
    },
    {
      "index": {
        "dowId": 5,
        "hourId": 16
      },
      "data": {
        "Site Incident Heat Severity Map (lv12)": [
          {
            "rank": 1,
            "value": 110.0,
            "timestamp": 1453738609000
          }
        ]
      }
    },
    {
      "index": {
        "dowId": 5,
        "hourId": 17
      },
      "data": {
        "Site Incident Heat Severity Map (lv12)": [
          {
            "rank": 1,
            "value": 100.0,
            "timestamp": 1453738609000
          }
        ]
      }
    },
    {
      "index": {
        "dowId": 5,
        "hourId": 18
      },
      "data": {
        "Site Incident Heat Severity Map (lv12)": [
          {
            "rank": 1,
            "value": 400.0,
            "timestamp": 1453738609000
          }
        ]
      }
    },
    {
      "index": {
        "dowId": 5,
        "hourId": 19
      },
      "data": {
        "Site Incident Heat Severity Map (lv12)": [
          {
            "rank": 1,
            "value": 260.0,
            "timestamp": 1453738609000
          }
        ]
      }
    },
    {
      "index": {
        "dowId": 5,
        "hourId": 20
      },
      "data": {
        "Site Incident Heat Severity Map (lv12)": [
          {
            "rank": 1,
            "value": 70.0,
            "timestamp": 1453738609000
          }
        ]
      }
    },
    {
      "index": {
        "dowId": 5,
        "hourId": 21
      },
      "data": {
        "Site Incident Heat Severity Map (lv12)": [
          {
            "rank": 1,
            "value": 130.0,
            "timestamp": 1453738609000
          }
        ]
      }
    },
    {
      "index": {
        "dowId": 5,
        "hourId": 22
      },
      "data": {
        "Site Incident Heat Severity Map (lv12)": [
          {
            "rank": 1,
            "value": 180.0,
            "timestamp": 1453738609000
          }
        ]
      }
    },
    {
      "index": {
        "dowId": 5,
        "hourId": 23
      },
      "data": {
        "Site Incident Heat Severity Map (lv12)": [
          {
            "rank": 1,
            "value": 210.0,
            "timestamp": 1453738609000
          }
        ]
      }
    },
    {
      "index": {
        "dowId": 5,
        "hourId": 3
      },
      "data": {
        "Site Incident Heat Severity Map (lv12)": [
          {
            "rank": 1,
            "value": 80.0,
            "timestamp": 1453738609000
          }
        ]
      }
    },
    {
      "index": {
        "dowId": 5,
        "hourId": 5
      },
      "data": {
        "Site Incident Heat Severity Map (lv12)": [
          {
            "rank": 1,
            "value": 60.0,
            "timestamp": 1453738609000
          }
        ]
      }
    },
    {
      "index": {
        "dowId": 5,
        "hourId": 6
      },
      "data": {
        "Site Incident Heat Severity Map (lv12)": [
          {
            "rank": 1,
            "value": 80.0,
            "timestamp": 1453738609000
          }
        ]
      }
    },
    {
      "index": {
        "dowId": 5,
        "hourId": 7
      },
      "data": {
        "Site Incident Heat Severity Map (lv12)": [
          {
            "rank": 1,
            "value": 260.0,
            "timestamp": 1453738609000
          }
        ]
      }
    },
    {
      "index": {
        "dowId": 5,
        "hourId": 8
      },
      "data": {
        "Site Incident Heat Severity Map (lv12)": [
          {
            "rank": 1,
            "value": 100.0,
            "timestamp": 1453738609000
          }
        ]
      }
    },
    {
      "index": {
        "dowId": 5,
        "hourId": 9
      },
      "data": {
        "Site Incident Heat Severity Map (lv12)": [
          {
            "rank": 1,
            "value": 350.0,
            "timestamp": 1453738609000
          }
        ]
      }
    },
    {
      "index": {
        "dowId": 6,
        "hourId": 0
      },
      "data": {
        "Site Incident Heat Severity Map (lv12)": [
          {
            "rank": 1,
            "value": 110.0,
            "timestamp": 1453738609000
          }
        ]
      }
    },
    {
      "index": {
        "dowId": 6,
        "hourId": 10
      },
      "data": {
        "Site Incident Heat Severity Map (lv12)": [
          {
            "rank": 1,
            "value": 510.0,
            "timestamp": 1453738609000
          }
        ]
      }
    },
    {
      "index": {
        "dowId": 6,
        "hourId": 11
      },
      "data": {
        "Site Incident Heat Severity Map (lv12)": [
          {
            "rank": 1,
            "value": 440.0,
            "timestamp": 1453738609000
          }
        ]
      }
    },
    {
      "index": {
        "dowId": 6,
        "hourId": 12
      },
      "data": {
        "Site Incident Heat Severity Map (lv12)": [
          {
            "rank": 1,
            "value": 550.0,
            "timestamp": 1453738609000
          }
        ]
      }
    },
    {
      "index": {
        "dowId": 6,
        "hourId": 13
      },
      "data": {
        "Site Incident Heat Severity Map (lv12)": [
          {
            "rank": 1,
            "value": 450.0,
            "timestamp": 1453738609000
          }
        ]
      }
    },
    {
      "index": {
        "dowId": 6,
        "hourId": 14
      },
      "data": {
        "Site Incident Heat Severity Map (lv12)": [
          {
            "rank": 1,
            "value": 400.0,
            "timestamp": 1453738609000
          }
        ]
      }
    },
    {
      "index": {
        "dowId": 6,
        "hourId": 15
      },
      "data": {
        "Site Incident Heat Severity Map (lv12)": [
          {
            "rank": 1,
            "value": 220.0,
            "timestamp": 1453738609000
          }
        ]
      }
    },
    {
      "index": {
        "dowId": 6,
        "hourId": 16
      },
      "data": {
        "Site Incident Heat Severity Map (lv12)": [
          {
            "rank": 1,
            "value": 390.0,
            "timestamp": 1453738609000
          }
        ]
      }
    },
    {
      "index": {
        "dowId": 6,
        "hourId": 17
      },
      "data": {
        "Site Incident Heat Severity Map (lv12)": [
          {
            "rank": 1,
            "value": 480.0,
            "timestamp": 1453738609000
          }
        ]
      }
    },
    {
      "index": {
        "dowId": 6,
        "hourId": 18
      },
      "data": {
        "Site Incident Heat Severity Map (lv12)": [
          {
            "rank": 1,
            "value": 430.0,
            "timestamp": 1453738609000
          }
        ]
      }
    },
    {
      "index": {
        "dowId": 6,
        "hourId": 19
      },
      "data": {
        "Site Incident Heat Severity Map (lv12)": [
          {
            "rank": 1,
            "value": 120.0,
            "timestamp": 1453738609000
          }
        ]
      }
    },
    {
      "index": {
        "dowId": 6,
        "hourId": 20
      },
      "data": {
        "Site Incident Heat Severity Map (lv12)": [
          {
            "rank": 1,
            "value": 50.0,
            "timestamp": 1453738609000
          }
        ]
      }
    },
    {
      "index": {
        "dowId": 6,
        "hourId": 21
      },
      "data": {
        "Site Incident Heat Severity Map (lv12)": [
          {
            "rank": 1,
            "value": 120.0,
            "timestamp": 1453738609000
          }
        ]
      }
    },
    {
      "index": {
        "dowId": 6,
        "hourId": 22
      },
      "data": {
        "Site Incident Heat Severity Map (lv12)": [
          {
            "rank": 1,
            "value": 300.0,
            "timestamp": 1453738609000
          }
        ]
      }
    },
    {
      "index": {
        "dowId": 6,
        "hourId": 23
      },
      "data": {
        "Site Incident Heat Severity Map (lv12)": [
          {
            "rank": 1,
            "value": 140.0,
            "timestamp": 1453738609000
          }
        ]
      }
    },
    {
      "index": {
        "dowId": 6,
        "hourId": 4
      },
      "data": {
        "Site Incident Heat Severity Map (lv12)": [
          {
            "rank": 1,
            "value": 110.0,
            "timestamp": 1453738609000
          }
        ]
      }
    },
    {
      "index": {
        "dowId": 6,
        "hourId": 5
      },
      "data": {
        "Site Incident Heat Severity Map (lv12)": [
          {
            "rank": 1,
            "value": 50.0,
            "timestamp": 1453738609000
          }
        ]
      }
    },
    {
      "index": {
        "dowId": 6,
        "hourId": 6
      },
      "data": {
        "Site Incident Heat Severity Map (lv12)": [
          {
            "rank": 1,
            "value": 100.0,
            "timestamp": 1453738609000
          }
        ]
      }
    },
    {
      "index": {
        "dowId": 6,
        "hourId": 7
      },
      "data": {
        "Site Incident Heat Severity Map (lv12)": [
          {
            "rank": 1,
            "value": 10.0,
            "timestamp": 1453738609000
          }
        ]
      }
    },
    {
      "index": {
        "dowId": 6,
        "hourId": 9
      },
      "data": {
        "Site Incident Heat Severity Map (lv12)": [
          {
            "rank": 1,
            "value": 260.0,
            "timestamp": 1453738609000
          }
        ]
      }
    },
    {
      "index": {
        "dowId": 7,
        "hourId": 0
      },
      "data": {
        "Site Incident Heat Severity Map (lv12)": [
          {
            "rank": 1,
            "value": 90.0,
            "timestamp": 1453738609000
          }
        ]
      }
    },
    {
      "index": {
        "dowId": 7,
        "hourId": 10
      },
      "data": {
        "Site Incident Heat Severity Map (lv12)": [
          {
            "rank": 1,
            "value": 110.0,
            "timestamp": 1453738609000
          }
        ]
      }
    },
    {
      "index": {
        "dowId": 7,
        "hourId": 11
      },
      "data": {
        "Site Incident Heat Severity Map (lv12)": [
          {
            "rank": 1,
            "value": 360.0,
            "timestamp": 1453738609000
          }
        ]
      }
    },
    {
      "index": {
        "dowId": 7,
        "hourId": 12
      },
      "data": {
        "Site Incident Heat Severity Map (lv12)": [
          {
            "rank": 1,
            "value": 130.0,
            "timestamp": 1453738609000
          }
        ]
      }
    },
    {
      "index": {
        "dowId": 7,
        "hourId": 13
      },
      "data": {
        "Site Incident Heat Severity Map (lv12)": [
          {
            "rank": 1,
            "value": 170.0,
            "timestamp": 1453738609000
          }
        ]
      }
    },
    {
      "index": {
        "dowId": 7,
        "hourId": 14
      },
      "data": {
        "Site Incident Heat Severity Map (lv12)": [
          {
            "rank": 1,
            "value": 250.0,
            "timestamp": 1453738609000
          }
        ]
      }
    },
    {
      "index": {
        "dowId": 7,
        "hourId": 15
      },
      "data": {
        "Site Incident Heat Severity Map (lv12)": [
          {
            "rank": 1,
            "value": 100.0,
            "timestamp": 1453738609000
          }
        ]
      }
    },
    {
      "index": {
        "dowId": 7,
        "hourId": 16
      },
      "data": {
        "Site Incident Heat Severity Map (lv12)": [
          {
            "rank": 1,
            "value": 180.0,
            "timestamp": 1453738609000
          }
        ]
      }
    },
    {
      "index": {
        "dowId": 7,
        "hourId": 17
      },
      "data": {
        "Site Incident Heat Severity Map (lv12)": [
          {
            "rank": 1,
            "value": 310.0,
            "timestamp": 1453738609000
          }
        ]
      }
    },
    {
      "index": {
        "dowId": 7,
        "hourId": 18
      },
      "data": {
        "Site Incident Heat Severity Map (lv12)": [
          {
            "rank": 1,
            "value": 320.0,
            "timestamp": 1453738609000
          }
        ]
      }
    },
    {
      "index": {
        "dowId": 7,
        "hourId": 19
      },
      "data": {
        "Site Incident Heat Severity Map (lv12)": [
          {
            "rank": 1,
            "value": 310.0,
            "timestamp": 1453738609000
          }
        ]
      }
    },
    {
      "index": {
        "dowId": 7,
        "hourId": 2
      },
      "data": {
        "Site Incident Heat Severity Map (lv12)": [
          {
            "rank": 1,
            "value": 130.0,
            "timestamp": 1453738609000
          }
        ]
      }
    },
    {
      "index": {
        "dowId": 7,
        "hourId": 20
      },
      "data": {
        "Site Incident Heat Severity Map (lv12)": [
          {
            "rank": 1,
            "value": 160.0,
            "timestamp": 1453738609000
          }
        ]
      }
    },
    {
      "index": {
        "dowId": 7,
        "hourId": 21
      },
      "data": {
        "Site Incident Heat Severity Map (lv12)": [
          {
            "rank": 1,
            "value": 100.0,
            "timestamp": 1453738609000
          }
        ]
      }
    },
    {
      "index": {
        "dowId": 7,
        "hourId": 22
      },
      "data": {
        "Site Incident Heat Severity Map (lv12)": [
          {
            "rank": 1,
            "value": 50.0,
            "timestamp": 1453738609000
          }
        ]
      }
    },
    {
      "index": {
        "dowId": 7,
        "hourId": 23
      },
      "data": {
        "Site Incident Heat Severity Map (lv12)": [
          {
            "rank": 1,
            "value": 180.0,
            "timestamp": 1453738609000
          }
        ]
      }
    },
    {
      "index": {
        "dowId": 7,
        "hourId": 4
      },
      "data": {
        "Site Incident Heat Severity Map (lv12)": [
          {
            "rank": 1,
            "value": 50.0,
            "timestamp": 1453738609000
          }
        ]
      }
    },
    {
      "index": {
        "dowId": 7,
        "hourId": 6
      },
      "data": {
        "Site Incident Heat Severity Map (lv12)": [
          {
            "rank": 1,
            "value": 50.0,
            "timestamp": 1453738609000
          }
        ]
      }
    },
    {
      "index": {
        "dowId": 7,
        "hourId": 7
      },
      "data": {
        "Site Incident Heat Severity Map (lv12)": [
          {
            "rank": 1,
            "value": 50.0,
            "timestamp": 1453738609000
          }
        ]
      }
    },
    {
      "index": {
        "dowId": 7,
        "hourId": 8
      },
      "data": {
        "Site Incident Heat Severity Map (lv12)": [
          {
            "rank": 1,
            "value": 80.0,
            "timestamp": 1453738609000
          }
        ]
      }
    },
    {
      "index": {
        "dowId": 7,
        "hourId": 9
      },
      "data": {
        "Site Incident Heat Severity Map (lv12)": [
          {
            "rank": 1,
            "value": 130.0,
            "timestamp": 1453738609000
          }
        ]
      }
    }
  ]
}
